[
  {
    "image": "logos/alumni-company/01_google.svg"
  },
  {
    "image": "logos/alumni-company/02_microsoft.svg"
  },
  {
    "image": "logos/alumni-company/03_intel.svg"
  },
  {
    "image": "logos/alumni-company/04_ibm.svg"
  },
  {
    "image": "logos/alumni-company/05_qualcomm-logo.svg"
  },
  {
    "image": "logos/alumni-company/06_ericsson.svg"
  },
  {
    "image": "logos/alumni-company/07_cisco.svg"
  },
  {
    "image": "logos/alumni-company/08_hp.svg"
  },
  {
    "image": "logos/alumni-company/09_mcafee.svg"
  },
  {
    "image": "logos/alumni-company/10_red-hat.svg"
  },
  {
    "image": "logos/alumni-company/11_vmware.svg"
  },
  {
    "image": "logos/alumni-company/12_amazon.svg"
  },
  {
    "image": "logos/alumni-company/13_walmart.svg"
  },
  {
    "image": "logos/alumni-company/14_cern.svg"
  },
  {
    "image": "logos/alumni-company/15_isro.svg"
  },
  {
    "image": "logos/alumni-company/16_flipkart.svg"
  },
  {
    "image": "logos/alumni-company/17_goldman-sachs.svg"
  },
  {
    "image": "logos/alumni-company/18_ola-cabs.svg"
  },
  {
    "image": "logos/alumni-company/19_reuters.svg"
  },
  {
    "image": "logos/alumni-company/20_oracle.svg"
  },
  {
    "image": "logos/alumni-company/21_salesforce.svg"
  },
  {
    "image": "logos/alumni-company/22_samsung.svg"
  },
  {
    "image": "logos/alumni-company/23_sap.svg"
  },
  {
    "image": "logos/alumni-company/24_bitergia.svg"
  },
  {
    "image": "logos/alumni-company/25_dell.svg"
  },
  {
    "image": "logos/alumni-company/26_motorola.svg"
  },
  {
    "image": "logos/alumni-company/27_verisign.svg"
  },
  {
    "image": "logos/alumni-company/28_hackerrank.svg"
  },
  {
    "image": "logos/alumni-company/36_yara.svg"
  },
  {
    "image": "logos/alumni-company/29_okta.svg"
  },
  {
    "image": "logos/alumni-company/30_providence.svg"
  },
  {
    "image": "logos/alumni-company/31_buddai.svg"
  },
  {
    "image": "logos/alumni-company/32_appviewX.svg"
  },
  {
    "image": "logos/alumni-company/33_daily.svg"
  },
  {
    "image": "logos/alumni-company/34_intuit.svg"
  },
  {
    "image": "logos/alumni-company/35_spoon.svg"
  }

]
